{
	"iplugin": {
		"interfaces": [
			"IPlugin/1.0", "IHabitsTracker/1.0"
		],
		"references": {
			"IHabitsTrackerDataExtention/1.0": 1,
			"IUserTaskDataExtention/1.0": 1,
			"IUserTaskRepeatDataExtention/1.0": 1,
			"IUserTaskDateDataExtention/1.0": 1
		},
		"info": {
			"name": "HabitsTracker",
			"about": "HabitsTracker"
		}
	}
}
